{
    "content": [
        { "id": 10, "tratamiento": "Sr.", "nombre": "Balduin", "apellidos": "Gooderham", "avatar": "https://randomuser.me/api/portraits/men/9.jpg", "telefono": "640 438 785", "email": "bgooderham9@wordpress.com" },
        { "id": 20, "tratamiento": "Sr.", "nombre": "Herold", "apellidos": "Wabey", "avatar": "https://randomuser.me/api/portraits/men/19.jpg", "telefono": "430 014 407", "email": "hwabeyj@parallels.com" },
        { "id": 30, "tratamiento": "Ilma.", "nombre": "Jeana", "apellidos": "Torvey", "avatar": "https://randomuser.me/api/portraits/women/29.jpg", "telefono": "606 503 698", "email": "jtorveyt@princeton.edu" },
        { "id": 40, "tratamiento": "Sr.", "nombre": "Waldo", "apellidos": "Fernao", "avatar": "https://randomuser.me/api/portraits/men/39.jpg", "telefono": "971 840 184", "email": "wfernao13@imdb.com" },
        { "id": 50, "tratamiento": "Dr.", "nombre": "Ross", "apellidos": "Knighton", "avatar": "https://randomuser.me/api/portraits/men/49.jpg", "telefono": "484 982 845", "email": "rknighton1d@soup.io" },
        { "id": 60, "tratamiento": "Ilma.", "nombre": "Gilda", "apellidos": "Dagnall", "avatar": "https://randomuser.me/api/portraits/women/59.jpg", "telefono": "858 154 128", "email": "gdagnall1n@csmonitor.com" },
        { "id": 70, "tratamiento": "Dra.", "nombre": "Jill", "apellidos": "Goodbar", "avatar": "https://randomuser.me/api/portraits/women/69.jpg", "telefono": "995 164 255", "email": "jgoodbar1x@weebly.com" }
    ],
    "totalElements": 10,
    "totalPages": 2,
    "number": 0,
    "size": 7,
    "empty": false,
    "first": true,
    "last": false,
    "numberOfElements": 7
}