{
    "content": [
        { "id": 80, "tratamiento": "Sr.", "nombre": "Chrissy", "apellidos": "Madgin", "avatar": "https://randomuser.me/api/portraits/men/79.jpg", "telefono": "721 183 763", "email": "cmadgin27@google.ru" },
        { "id": 90, "tratamiento": "Sra.", "nombre": "Elaine", "apellidos": "Venour", "avatar": "https://randomuser.me/api/portraits/women/89.jpg", "telefono": "922 665 423", "email": "evenour2h@marketwatch.com" },
        { "id": 100, "tratamiento": "Srta.", "nombre": "Lucina", "apellidos": "Bradbrook", "avatar": "https://randomuser.me/api/portraits/women/99.jpg", "telefono": "720 960 751", "email": "lbradbrook2r@bloglines.com" }
    ],
    "totalElements": 10,
    "totalPages": 2,
    "number": 1,
    "size": 7,
    "empty": false,
    "first": false,
    "last": true,
    "numberOfElements": 3
}